<?xml version="1.0" encoding="UTF-8" standalone="no"?>
<!-- Created with Inkscape (http://www.inkscape.org/) -->

<svg
   xmlns:dc="http://purl.org/dc/elements/1.1/"
   xmlns:cc="http://creativecommons.org/ns#"
   xmlns:rdf="http://www.w3.org/1999/02/22-rdf-syntax-ns#"
   xmlns:svg="http://www.w3.org/2000/svg"
   xmlns="http://www.w3.org/2000/svg"
   xmlns:xlink="http://www.w3.org/1999/xlink"
   xmlns:sodipodi="http://sodipodi.sourceforge.net/DTD/sodipodi-0.dtd"
   xmlns:inkscape="http://www.inkscape.org/namespaces/inkscape"
   width="210mm"
   height="297mm"
   viewBox="0 0 744.09448819 1052.3622047"
   id="svg2"
   version="1.1"
   inkscape:version="0.91 r13725"
   sodipodi:docname="gota.svg">
  <defs
     id="defs4">
    <linearGradient
       inkscape:collect="always"
       id="linearGradient4160">
      <stop
         style="stop-color:#efb3b3;stop-opacity:0.78099173"
         offset="0"
         id="stop4162" />
      <stop
         style="stop-color:#e10000;stop-opacity:0"
         offset="1"
         id="stop4164" />
    </linearGradient>
    <linearGradient
       inkscape:collect="always"
       id="linearGradient4142">
      <stop
         style="stop-color:#ff3d3d;stop-opacity:1"
         offset="0"
         id="stop4144" />
      <stop
         style="stop-color:#b70000;stop-opacity:1"
         offset="1"
         id="stop4146" />
    </linearGradient>
    <radialGradient
       inkscape:collect="always"
       xlink:href="#linearGradient4142"
       id="radialGradient4148"
       cx="451.94989"
       cy="520.89667"
       fx="451.94989"
       fy="520.89667"
       r="136.59169"
       gradientTransform="matrix(1.0453006,-1.0613749,1.3450862,1.3247151,-721.16903,321.91229)"
       gradientUnits="userSpaceOnUse" />
    <linearGradient
       inkscape:collect="always"
       xlink:href="#linearGradient4160"
       id="linearGradient4166"
       x1="466.77084"
       y1="615.25482"
       x2="536.40668"
       y2="472.39764"
       gradientUnits="userSpaceOnUse"
       gradientTransform="matrix(1.2133405,0,0,0.99999998,-108.95139,12.12183)" />
  </defs>
  <sodipodi:namedview
     id="base"
     pagecolor="#ffffff"
     bordercolor="#666666"
     borderopacity="1.0"
     inkscape:pageopacity="0.0"
     inkscape:pageshadow="2"
     inkscape:zoom="0.49497475"
     inkscape:cx="331.7553"
     inkscape:cy="471.22119"
     inkscape:document-units="px"
     inkscape:current-layer="layer1"
     showgrid="false"
     inkscape:window-width="1366"
     inkscape:window-height="705"
     inkscape:window-x="-8"
     inkscape:window-y="-8"
     inkscape:window-maximized="1" />
  <metadata
     id="metadata7">
    <rdf:RDF>
      <cc:Work
         rdf:about="">
        <dc:format>image/svg+xml</dc:format>
        <dc:type
           rdf:resource="http://purl.org/dc/dcmitype/StillImage" />
        <dc:title></dc:title>
      </cc:Work>
    </rdf:RDF>
  </metadata>
  <g
     inkscape:label="Camada 1"
     inkscape:groupmode="layer"
     id="layer1">
    <path
       style="opacity:1;fill:url(#radialGradient4148);fill-opacity:1;stroke:none;stroke-width:4;stroke-linecap:butt;stroke-linejoin:round;stroke-miterlimit:4;stroke-dasharray:none;stroke-opacity:1"
       d="m 253.67383,255.13086 c 25.98675,67.55228 50.47757,138.21396 27.60726,204.95661 -7.22667,21.08965 -20.63028,39.66967 -23.38656,71.28948 -0.49135,4.5977 -0.74234,9.21793 -0.75195,13.8418 0.019,12.42066 1.77961,24.77731 5.23047,36.70898 2.93019,11.96 7.6268,22.38091 14.91406,33.47461 3.59621,5.7251 7.62419,11.16734 12.04883,16.2793 1.45977,1.80079 2.96229,3.62695 4.55468,5.50977 l 0.14844,-0.1543 c 25.04968,26.19692 59.71505,41.02206 95.96094,41.03906 73.37519,1.5e-4 132.85757,-59.48223 132.85742,-132.85742 -0.0157,-21.1444 -0.52806,-66.36082 -36.64039,-109.41089 -66.13819,-76.59647 -149.06861,-126.21415 -232.5432,-180.677 z"
       id="path4136"
       inkscape:connector-curvature="0"
       sodipodi:nodetypes="csccccccccccc" />
    <path
       style="opacity:1;fill:url(#linearGradient4166);fill-opacity:1;stroke:none;stroke-width:2.08203602;stroke-linecap:butt;stroke-linejoin:round;stroke-miterlimit:4;stroke-dasharray:none;stroke-opacity:1"
       d="m 500.81921,498.14118 c 5.41971,25.35386 5.24778,40.83252 -6.85223,69.39051 -11.33499,23.89477 -45.41335,27.47896 -57.68239,51.05962 0,0 -10.18582,18.24137 6.07054,22.88252 54.91923,11.45687 85.21181,-95.51222 58.46408,-143.33265 z"
       id="path4150"
       inkscape:connector-curvature="0"
       sodipodi:nodetypes="ccccc" />
  </g>
</svg>
